FAMILIA,MARCA
ABRIGO,HUGO BOSS
ABRIGO,HLIFE
ABRIGO,CALDERONI 
BERMUDA,HLIFE
BERMUDA,CALDE UPPE
BERMUDA,HUGO BOSS
BUFANDA,HLIFE
BUFANDA,CALDERONI
BUFANDA,HUGO BOSS
CALCETIN,HLIFE
BERMUDA,Z ZEGNA
CALCETIN,HUGO BOSS
CALZADO,HLIFE
CALZADO,CALDERONI
CALZADO,HUGO BOSS
BERMUDA,OM
CAMISA SP,CALDE UPPE
CAMISA SP,HUGO BOSS
CAMISA V,HUGO BOSS
CAMISA V,Z ZEGNA
CHALECO,CANALI
CHALECO,HUGO BOSS
BILLETERA,HLIFE
BILLETERA,CALDERONI 
BILLETERA,HUGO BOSS
CHALECO V,HL SLIM FI
CHAMARRA,HLIFE
CHAMARRA,CALDE UPPE
BILLETERA,Z ZEGNA 
BILLETERA,CANALI 
BLAZER,HL SLIM FI
BLAZER,HL TRENDY 
BLAZER,CALDERONI 
BLAZER,Z ZEGNA 
BOLSO,OM
BUFANDA,Z ZEGNA 
BUFANDA,CANALI 
CALCETIN,CALDERONI 
CALZADO,Z ZEGNA 
CALZADO,CANALI 
CAMISA SP,HLIFE
CAMISA SP,Z ZEGNA 
CAMISA SP,CANALI 
CAMISA V,CALDE UPPE
CHALECO,Z ZEGNA 
CHALECO V,HLIFE
CHALECO V,CALDERONI 
CHALECO V,HL TRENDY
CHAMARRA,CALDERONI 
CINTURON,HLIFE
CINTURON,CALDERONI 
CINTURON,HUGO BOSS
CINTURON,Z ZEGNA 
CINTURON,CANALI 
CORBATA,HLIFE
CORBATA,CALDERONI
CORBATA,HUGO BOSS
CORBATA,Z ZEGNA
CORBATA,CANALI
EQUIPAJE,HLIFE
EQUIPAJE,CALDERONI 
EQUIPAJE,HUGO BOSS
EQUIPAJE,Z ZEGNA 
EQUIPAJE,CANALI 
FAJA,HLIFE
FAJA,CALDERONI
FAJA,HUGO BOSS
FAJA,Z ZEGNA 
FAJA,CANALI 
FAJAYMONO,HLIFE
FAJAYMONO,CALDERONI 
FAJAYMONO,HUGO BOSS
FAJAYMONO,Z ZEGNA 
GABARDINA,HLIFE
GABARDINA,CALDERONI
GABARDINA,HUGO BOSS
GABARDINA,Z ZEGNA
GABARDINA,CALDE UPPE
GORRA,HLIFE
PANTALON S,HLIFE
PANTALON S,CALDE UPPE
GORRA,CALDE UPPE
GORRA,HUGO BOSS
GORRA,Z ZEGNA 
GORRA,CANALI 
SACO SPORT,HLIFE
SACO SPORT,HL SLIM FI
SACO SPORT,HL TAILOR
JEANS,HLIFE
JEANS,CALDE UPPE
JEANS,HUGO BOSS
TRAJE,HL SLIM FI
TRAJE,HL TAILOR
TRAJE,HL TRENDY
TRAJE,HUGO BOSS
JEANS,Z ZEGNA
JEANS,CANALI 
LENTES,HLIFE
LENTES,CALDE UPPE
LENTES,HUGO BOSS
LENTES,Z ZEGNA 
LENTES,OM
LLAVERO,Z ZEGNA 
LLAVERO,OM
MALETIN,HLIFE
MALETIN,CALDERONI
MALETIN,HUGO BOSS
MALETIN,Z ZEGNA 
PLAYERA,CALDE UPPE
MALETIN,OM
MANCUERNIL,HLIFE
MANCUERNIL,CALDERONI
MANCUERNIL,HUGO BOSS
MANCUERNIL,Z ZEGNA 
MANCUERNIL,OM
MOCHILA,OM
MONO,HLIFE
ABRIGO,CALDERONIC
MONO,CALDERONI
MONO,HUGO BOSS
MONO,Z ZEGNA 
MONO,CANALI 
PANTALON S,HUGO BOSS
PANTALON S,Z ZEGNA
PANTALON S,CANALI 
PANTALON V,HL SLIM FI
CAMISA V,CKLEIN
CHALECO,HLIFE
CHALECO,CALDERONI
PANTALON V,HL TAILOR
CHAMARRA,HUGO BOSS
CHAMARRA,Z ZEGNA
PANTALON V,HL TRENDY
PANTALON V,CALDERONI
PANTALON V,HUGO BOSS
PANTALON V,Z ZEGNA
PANTALON V,CANALI
PANTALON V,SIDI LE CO
PANTALON V,HLIFE
PANTS,HUGO BOSS
PANTS,Z ZEGNA 
PANTS,OM
PANUELO,HLIFE
PANUELO,CALDERONI
PANUELO,HUGO BOSS
PANUELO,Z ZEGNA 
PANUELO,CANALI 
PIN,HLIFE
PIN,CALDERONI
PIN,HUGO BOSS
PIN,Z ZEGNA 
PIN,OM
PLAYERA,HLIFE
PLAYERA,HUGO BOSS
PLAYERA,Z ZEGNA
PLAYERA,CANALI 
PORTAFOLIO,HLIFE
PORTAFOLIO,CALDERONI
PORTAFOLIO,HUGO BOSS
PULSERA,HLIFE
PULSERA,CALDERONI
PULSERA,HUGO BOSS
PULSERA,OM
ROPA INT,CALDERONI
ROPA INT,HUGO BOSS
SACO SPORT,HL TRENDY
SACO SPORT,CALDE UPPE
SACO SPORT,CALDERONI
ROPA INT,OM
SACO SPORT,MADE ITALY
TRAJE,CANALI
TRAJE,Z ZEGNA
SMOKING,HLIFE
TRAJE,E.ZEGNA
SMOKING,HL SLIM FI
SMOKING,HL TAILOR
SMOKING,HL TRENDY
SMOKING,CALDERONI
SMOKING,CALDLANOTE
SMOKING,HUGO BOSS
SMOKING,Z ZEGNA
SMOKING,CANALI 
SUDADERA,HLIFE
SUDADERA,CALDE UPPE
SUDADERA,HUGO BOSS
SUDADERA,Z ZEGNA
SUDADERA,CANALI 
TRAJE,CERRUTI
SUETER,HLIFE
SUETER,CALDERONI
CHALECO,CALDE UPPE
CHALECO,HL SLIM FI
CHAMARRA,CANALI
SUETER,CALDE UPPE
SACO SPORT,CALDERONIC
SACO SPORT,HUGO BOSS
SACO SPORT,Z ZEGNA
SACO SPORT,CANALI
SUETER,HUGO BOSS
SUETER,Z ZEGNA
SUETER,CANALI 
TIRANTES,HLIFE
TIRANTES,CALDERONI
TIRANTES,HUGO BOSS
TIRANTES,OM
TRAJE,SIDI LE CO
TRAJE,MADE ITALY
TRAJE TRIO,HL SLIM FI
TRAJE,CALDERONIB
TRAJE,CALDERONIC
TRAJE TRIO,HL TAILOR
TRAJE TRIO,HL TRENDY
TRAJE,CALDERONI
TRAJE TRIO,HUGO BOSS
TRAJE TRIO,Z ZEGNA
TRAJE TRIO,CANALI 
TRAJE,HLIFE
TRAJE,SIDI
CHAMARRA,HL SLIM FI
