﻿Familia,Marca,Categoria,Año,Mes,PPTO VTA,VTA AJUST,PPTO COMP,COMP AJUST
TRAJE,CALDERONI,,2020,1,0,0,0,0
TRAJE,CALDERONI,,2020,2,0,0,0,0
TRAJE,CALDERONI,,2020,3,0,0,0,0
TRAJE,CALDERONI,,2020,4,0,0,0,0
TRAJE,CALDERONI,,2020,5,0,0,0,0
TRAJE,CALDERONI,,2020,6,0,0,0,0
TRAJE,CALDERONI,,2020,7,0,0,0,0
TRAJE,CALDERONI,,2020,8,0,0,0,0
TRAJE,CALDERONI,,2020,9,0,0,0,0
TRAJE,CALDERONI,,2020,10,0,0,0,0
TRAJE,CALDERONI,,2020,11,0,0,0,0
TRAJE,CALDERONI,,2020,12,0,0,0,0
TRAJE,CALDLANOTE,,2020,1,0,0,0,0
TRAJE,CALDLANOTE,,2020,2,0,0,0,0
TRAJE,CALDLANOTE,,2020,3,0,0,0,0
TRAJE,CALDLANOTE,,2020,4,0,0,0,0
TRAJE,CALDLANOTE,,2020,5,0,0,0,0
TRAJE,CALDLANOTE,,2020,6,0,0,0,0
TRAJE,CALDLANOTE,,2020,7,0,0,0,0
TRAJE,CALDLANOTE,,2020,8,0,0,0,0
TRAJE,CALDLANOTE,,2020,9,0,0,0,0
TRAJE,CALDLANOTE,,2020,10,0,0,0,0
TRAJE,CALDLANOTE,,2020,11,0,0,0,0
TRAJE,CALDLANOTE,,2020,12,0,0,0,0
TRAJE,CERRUTI,,2020,1,0,0,0,0
TRAJE,CERRUTI,,2020,2,0,0,0,0
TRAJE,CERRUTI,,2020,3,0,0,0,0
TRAJE,CERRUTI,,2020,4,0,0,0,0
TRAJE,CERRUTI,,2020,5,0,0,0,0
TRAJE,CERRUTI,,2020,6,0,0,0,0
TRAJE,CERRUTI,,2020,7,0,0,0,0
TRAJE,CERRUTI,,2020,8,0,0,0,0
TRAJE,CERRUTI,,2020,9,0,0,0,0
TRAJE,CERRUTI,,2020,10,0,0,0,0
TRAJE,CERRUTI,,2020,11,0,0,0,0
TRAJE,CERRUTI,,2020,12,0,0,0,0
TRAJE,ROBERTS SL,,2020,1,0,0,0,0
TRAJE,ROBERTS SL,,2020,2,0,0,0,0
TRAJE,ROBERTS SL,,2020,3,0,0,0,0
TRAJE,ROBERTS SL,,2020,4,0,0,0,0
TRAJE,ROBERTS SL,,2020,5,0,0,0,0
TRAJE,ROBERTS SL,,2020,6,0,0,0,0
TRAJE,ROBERTS SL,,2020,7,0,0,0,0
TRAJE,ROBERTS SL,,2020,8,0,0,0,0
TRAJE,ROBERTS SL,,2020,9,0,0,0,0
TRAJE,ROBERTS SL,,2020,10,0,0,0,0
TRAJE,ROBERTS SL,,2020,11,0,0,0,0
TRAJE,ROBERTS SL,,2020,12,0,0,0,0
TRAJE TRIO,CALDERONIC,,2020,1,0,0,0,0
TRAJE TRIO,CALDERONIC,,2020,2,0,0,0,0
TRAJE TRIO,CALDERONIC,,2020,3,0,0,0,0
TRAJE TRIO,CALDERONIC,,2020,4,0,0,0,0
TRAJE TRIO,CALDERONIC,,2020,5,0,0,0,0
TRAJE TRIO,CALDERONIC,,2020,6,0,0,0,0
TRAJE TRIO,CALDERONIC,,2020,7,0,0,0,0
TRAJE TRIO,CALDERONIC,,2020,8,0,0,0,0
TRAJE TRIO,CALDERONIC,,2020,9,0,0,0,0
TRAJE TRIO,CALDERONIC,,2020,10,0,0,0,0
TRAJE TRIO,CALDERONIC,,2020,11,0,0,0,0
TRAJE TRIO,CALDERONIC,,2020,12,0,0,0,0
TRAJE TRIO,ROBERTS,,2020,1,0,0,0,0
TRAJE TRIO,ROBERTS,,2020,2,0,0,0,0
TRAJE TRIO,ROBERTS,,2020,3,0,0,0,0
TRAJE TRIO,ROBERTS,,2020,4,0,0,0,0
TRAJE TRIO,ROBERTS,,2020,5,0,0,0,0
TRAJE TRIO,ROBERTS,,2020,6,0,0,0,0
TRAJE TRIO,ROBERTS,,2020,7,0,0,0,0
TRAJE TRIO,ROBERTS,,2020,8,0,0,0,0
TRAJE TRIO,ROBERTS,,2020,9,0,0,0,0
TRAJE TRIO,ROBERTS,,2020,10,0,0,0,0
TRAJE TRIO,ROBERTS,,2020,11,0,0,0,0
TRAJE TRIO,ROBERTS,,2020,12,0,0,0,0
TRAJE,GIORGIO VA,,2020,1,0,0,0,0
TRAJE,GIORGIO VA,,2020,2,0,0,0,0
TRAJE,GIORGIO VA,,2020,3,0,0,0,0
TRAJE,GIORGIO VA,,2020,4,0,0,0,0
TRAJE,GIORGIO VA,,2020,5,0,0,0,0
TRAJE,GIORGIO VA,,2020,6,0,0,0,0
TRAJE,GIORGIO VA,,2020,7,0,0,0,0
TRAJE,GIORGIO VA,,2020,8,0,0,0,0
TRAJE,GIORGIO VA,,2020,9,0,0,0,0
TRAJE,GIORGIO VA,,2020,10,0,0,0,0
TRAJE,GIORGIO VA,,2020,11,0,0,0,0
TRAJE,GIORGIO VA,,2020,12,0,0,0,0
TRAJE,ROBERTS SA,,2020,1,0,0,0,0
TRAJE,ROBERTS SA,,2020,2,0,0,0,0
TRAJE,ROBERTS SA,,2020,3,0,0,0,0
TRAJE,ROBERTS SA,,2020,4,0,0,0,0
TRAJE,ROBERTS SA,,2020,5,0,0,0,0
TRAJE,ROBERTS SA,,2020,6,0,0,0,0
TRAJE,ROBERTS SA,,2020,7,0,0,0,0
TRAJE,ROBERTS SA,,2020,8,0,0,0,0
TRAJE,ROBERTS SA,,2020,9,0,0,0,0
TRAJE,ROBERTS SA,,2020,10,0,0,0,0
TRAJE,ROBERTS SA,,2020,11,0,0,0,0
TRAJE,ROBERTS SA,,2020,12,0,0,0,0
TRAJE,ROBERTSBAS,,2020,1,0,0,0,0
TRAJE,ROBERTSBAS,,2020,2,0,0,0,0
TRAJE,ROBERTSBAS,,2020,3,0,0,0,0
TRAJE,ROBERTSBAS,,2020,4,0,0,0,0
TRAJE,ROBERTSBAS,,2020,5,0,0,0,0
TRAJE,ROBERTSBAS,,2020,6,0,0,0,0
TRAJE,ROBERTSBAS,,2020,7,0,0,0,0
TRAJE,ROBERTSBAS,,2020,8,0,0,0,0
TRAJE,ROBERTSBAS,,2020,9,0,0,0,0
TRAJE,ROBERTSBAS,,2020,10,0,0,0,0
TRAJE,ROBERTSBAS,,2020,11,0,0,0,0
TRAJE,ROBERTSBAS,,2020,12,0,0,0,0
TRAJE,VERSACE,,2020,1,0,0,0,0
TRAJE,VERSACE,,2020,2,0,0,0,0
TRAJE,VERSACE,,2020,3,0,0,0,0
TRAJE,VERSACE,,2020,4,0,0,0,0
TRAJE,VERSACE,,2020,5,0,0,0,0
TRAJE,VERSACE,,2020,6,0,0,0,0
TRAJE,VERSACE,,2020,7,0,0,0,0
TRAJE,VERSACE,,2020,8,0,0,0,0
TRAJE,VERSACE,,2020,9,0,0,0,0
TRAJE,VERSACE,,2020,10,0,0,0,0
TRAJE,VERSACE,,2020,11,0,0,0,0
TRAJE,VERSACE,,2020,12,0,0,0,0
TRAJE TRIO,G.VALENTIN,,2020,1,0,0,0,0
TRAJE TRIO,G.VALENTIN,,2020,2,0,0,0,0
TRAJE TRIO,G.VALENTIN,,2020,3,0,0,0,0
TRAJE TRIO,G.VALENTIN,,2020,4,0,0,0,0
TRAJE TRIO,G.VALENTIN,,2020,5,0,0,0,0
TRAJE TRIO,G.VALENTIN,,2020,6,0,0,0,0
TRAJE TRIO,G.VALENTIN,,2020,7,0,0,0,0
TRAJE TRIO,G.VALENTIN,,2020,8,0,0,0,0
TRAJE TRIO,G.VALENTIN,,2020,9,0,0,0,0
TRAJE TRIO,G.VALENTIN,,2020,10,0,0,0,0
TRAJE TRIO,G.VALENTIN,,2020,11,0,0,0,0
TRAJE TRIO,G.VALENTIN,,2020,12,0,0,0,0
TRAJE TRIO,ROBERTS RE,,2020,1,0,0,0,0
TRAJE TRIO,ROBERTS RE,,2020,2,0,0,0,0
TRAJE TRIO,ROBERTS RE,,2020,3,0,0,0,0
TRAJE TRIO,ROBERTS RE,,2020,4,0,0,0,0
TRAJE TRIO,ROBERTS RE,,2020,5,0,0,0,0
TRAJE TRIO,ROBERTS RE,,2020,6,0,0,0,0
TRAJE TRIO,ROBERTS RE,,2020,7,0,0,0,0
TRAJE TRIO,ROBERTS RE,,2020,8,0,0,0,0
TRAJE TRIO,ROBERTS RE,,2020,9,0,0,0,0
TRAJE TRIO,ROBERTS RE,,2020,10,0,0,0,0
TRAJE TRIO,ROBERTS RE,,2020,11,0,0,0,0
TRAJE TRIO,ROBERTS RE,,2020,12,0,0,0,0
TRAJE TRIO,ROBERTS SL,,2020,1,0,0,0,0
TRAJE TRIO,ROBERTS SL,,2020,2,0,0,0,0
TRAJE TRIO,ROBERTS SL,,2020,3,0,0,0,0
TRAJE TRIO,ROBERTS SL,,2020,4,0,0,0,0
TRAJE TRIO,ROBERTS SL,,2020,5,0,0,0,0
TRAJE TRIO,ROBERTS SL,,2020,6,0,0,0,0
TRAJE TRIO,ROBERTS SL,,2020,7,0,0,0,0
TRAJE TRIO,ROBERTS SL,,2020,8,0,0,0,0
TRAJE TRIO,ROBERTS SL,,2020,9,0,0,0,0
TRAJE TRIO,ROBERTS SL,,2020,10,0,0,0,0
TRAJE TRIO,ROBERTS SL,,2020,11,0,0,0,0
TRAJE TRIO,ROBERTS SL,,2020,12,0,0,0,0
TRAJE,CALDERONIB,,2020,1,0,0,0,0
TRAJE,CALDERONIB,,2020,2,0,0,0,0
TRAJE,CALDERONIB,,2020,3,0,0,0,0
TRAJE,CALDERONIB,,2020,4,0,0,0,0
TRAJE,CALDERONIB,,2020,5,0,0,0,0
TRAJE,CALDERONIB,,2020,6,0,0,0,0
TRAJE,CALDERONIB,,2020,7,0,0,0,0
TRAJE,CALDERONIB,,2020,8,0,0,0,0
TRAJE,CALDERONIB,,2020,9,0,0,0,0
TRAJE,CALDERONIB,,2020,10,0,0,0,0
TRAJE,CALDERONIB,,2020,11,0,0,0,0
TRAJE,CALDERONIB,,2020,12,0,0,0,0
TRAJE,CANALI,,2020,1,0,0,0,0
TRAJE,CANALI,,2020,2,0,0,0,0
TRAJE,CANALI,,2020,3,0,0,0,0
TRAJE,CANALI,,2020,4,0,0,0,0
TRAJE,CANALI,,2020,5,0,0,0,0
TRAJE,CANALI,,2020,6,0,0,0,0
TRAJE,CANALI,,2020,7,0,0,0,0
TRAJE,CANALI,,2020,8,0,0,0,0
TRAJE,CANALI,,2020,9,0,0,0,0
TRAJE,CANALI,,2020,10,0,0,0,0
TRAJE,CANALI,,2020,11,0,0,0,0
TRAJE,CANALI,,2020,12,0,0,0,0
TRAJE,HUGO BOSS,,2020,1,0,0,0,0
TRAJE,HUGO BOSS,,2020,2,0,0,0,0
TRAJE,HUGO BOSS,,2020,3,0,0,0,0
TRAJE,HUGO BOSS,,2020,4,0,0,0,0
TRAJE,HUGO BOSS,,2020,5,0,0,0,0
TRAJE,HUGO BOSS,,2020,6,0,0,0,0
TRAJE,HUGO BOSS,,2020,7,0,0,0,0
TRAJE,HUGO BOSS,,2020,8,0,0,0,0
TRAJE,HUGO BOSS,,2020,9,0,0,0,0
TRAJE,HUGO BOSS,,2020,10,0,0,0,0
TRAJE,HUGO BOSS,,2020,11,0,0,0,0
TRAJE,HUGO BOSS,,2020,12,0,0,0,0
TRAJE,ROBERTS,,2020,1,0,0,0,0
TRAJE,ROBERTS,,2020,2,0,0,0,0
TRAJE,ROBERTS,,2020,3,0,0,0,0
TRAJE,ROBERTS,,2020,4,0,0,0,0
TRAJE,ROBERTS,,2020,5,0,0,0,0
TRAJE,ROBERTS,,2020,6,0,0,0,0
TRAJE,ROBERTS,,2020,7,0,0,0,0
TRAJE,ROBERTS,,2020,8,0,0,0,0
TRAJE,ROBERTS,,2020,9,0,0,0,0
TRAJE,ROBERTS,,2020,10,0,0,0,0
TRAJE,ROBERTS,,2020,11,0,0,0,0
TRAJE,ROBERTS,,2020,12,0,0,0,0
TRAJE,ROBERTS PA,,2020,1,0,0,0,0
TRAJE,ROBERTS PA,,2020,2,0,0,0,0
TRAJE,ROBERTS PA,,2020,3,0,0,0,0
TRAJE,ROBERTS PA,,2020,4,0,0,0,0
TRAJE,ROBERTS PA,,2020,5,0,0,0,0
TRAJE,ROBERTS PA,,2020,6,0,0,0,0
TRAJE,ROBERTS PA,,2020,7,0,0,0,0
TRAJE,ROBERTS PA,,2020,8,0,0,0,0
TRAJE,ROBERTS PA,,2020,9,0,0,0,0
TRAJE,ROBERTS PA,,2020,10,0,0,0,0
TRAJE,ROBERTS PA,,2020,11,0,0,0,0
TRAJE,ROBERTS PA,,2020,12,0,0,0,0
TRAJE TRIO,CALDERONI,,2020,1,0,0,0,0
TRAJE TRIO,CALDERONI,,2020,2,0,0,0,0
TRAJE TRIO,CALDERONI,,2020,3,0,0,0,0
TRAJE TRIO,CALDERONI,,2020,4,0,0,0,0
TRAJE TRIO,CALDERONI,,2020,5,0,0,0,0
TRAJE TRIO,CALDERONI,,2020,6,0,0,0,0
TRAJE TRIO,CALDERONI,,2020,7,0,0,0,0
TRAJE TRIO,CALDERONI,,2020,8,0,0,0,0
TRAJE TRIO,CALDERONI,,2020,9,0,0,0,0
TRAJE TRIO,CALDERONI,,2020,10,0,0,0,0
TRAJE TRIO,CALDERONI,,2020,11,0,0,0,0
TRAJE TRIO,CALDERONI,,2020,12,0,0,0,0
TRAJE TRIO,HUGO BOSS,,2020,1,0,0,0,0
TRAJE TRIO,HUGO BOSS,,2020,2,0,0,0,0
TRAJE TRIO,HUGO BOSS,,2020,3,0,0,0,0
TRAJE TRIO,HUGO BOSS,,2020,4,0,0,0,0
TRAJE TRIO,HUGO BOSS,,2020,5,0,0,0,0
TRAJE TRIO,HUGO BOSS,,2020,6,0,0,0,0
TRAJE TRIO,HUGO BOSS,,2020,7,0,0,0,0
TRAJE TRIO,HUGO BOSS,,2020,8,0,0,0,0
TRAJE TRIO,HUGO BOSS,,2020,9,0,0,0,0
TRAJE TRIO,HUGO BOSS,,2020,10,0,0,0,0
TRAJE TRIO,HUGO BOSS,,2020,11,0,0,0,0
TRAJE TRIO,HUGO BOSS,,2020,12,0,0,0,0
TRAJE,E.ZEGNA,,2020,1,0,0,0,0
TRAJE,E.ZEGNA,,2020,2,0,0,0,0
TRAJE,E.ZEGNA,,2020,3,0,0,0,0
TRAJE,E.ZEGNA,,2020,4,0,0,0,0
TRAJE,E.ZEGNA,,2020,5,0,0,0,0
TRAJE,E.ZEGNA,,2020,6,0,0,0,0
TRAJE,E.ZEGNA,,2020,7,0,0,0,0
TRAJE,E.ZEGNA,,2020,8,0,0,0,0
TRAJE,E.ZEGNA,,2020,9,0,0,0,0
TRAJE,E.ZEGNA,,2020,10,0,0,0,0
TRAJE,E.ZEGNA,,2020,11,0,0,0,0
TRAJE,E.ZEGNA,,2020,12,0,0,0,0
TRAJE,ROBERTS RE,,2020,1,0,0,0,0
TRAJE,ROBERTS RE,,2020,2,0,0,0,0
TRAJE,ROBERTS RE,,2020,3,0,0,0,0
TRAJE,ROBERTS RE,,2020,4,0,0,0,0
TRAJE,ROBERTS RE,,2020,5,0,0,0,0
TRAJE,ROBERTS RE,,2020,6,0,0,0,0
TRAJE,ROBERTS RE,,2020,7,0,0,0,0
TRAJE,ROBERTS RE,,2020,8,0,0,0,0
TRAJE,ROBERTS RE,,2020,9,0,0,0,0
TRAJE,ROBERTS RE,,2020,10,0,0,0,0
TRAJE,ROBERTS RE,,2020,11,0,0,0,0
TRAJE,ROBERTS RE,,2020,12,0,0,0,0
TRAJE,CALDERONIC,,2020,1,0,0,0,0
TRAJE,CALDERONIC,,2020,2,0,0,0,0
TRAJE,CALDERONIC,,2020,3,0,0,0,0
TRAJE,CALDERONIC,,2020,4,0,0,0,0
TRAJE,CALDERONIC,,2020,5,0,0,0,0
TRAJE,CALDERONIC,,2020,6,0,0,0,0
TRAJE,CALDERONIC,,2020,7,0,0,0,0
TRAJE,CALDERONIC,,2020,8,0,0,0,0
TRAJE,CALDERONIC,,2020,9,0,0,0,0
TRAJE,CALDERONIC,,2020,10,0,0,0,0
TRAJE,CALDERONIC,,2020,11,0,0,0,0
TRAJE,CALDERONIC,,2020,12,0,0,0,0
TRAJE,EPSILON,,2020,1,0,0,0,0
TRAJE,EPSILON,,2020,2,0,0,0,0
TRAJE,EPSILON,,2020,3,0,0,0,0
TRAJE,EPSILON,,2020,4,0,0,0,0
TRAJE,EPSILON,,2020,5,0,0,0,0
TRAJE,EPSILON,,2020,6,0,0,0,0
TRAJE,EPSILON,,2020,7,0,0,0,0
TRAJE,EPSILON,,2020,8,0,0,0,0
TRAJE,EPSILON,,2020,9,0,0,0,0
TRAJE,EPSILON,,2020,10,0,0,0,0
TRAJE,EPSILON,,2020,11,0,0,0,0
TRAJE,EPSILON,,2020,12,0,0,0,0
TRAJE,OM,,2020,1,0,0,0,0
TRAJE,OM,,2020,2,0,0,0,0
TRAJE,OM,,2020,3,0,0,0,0
TRAJE,OM,,2020,4,0,0,0,0
TRAJE,OM,,2020,5,0,0,0,0
TRAJE,OM,,2020,6,0,0,0,0
TRAJE,OM,,2020,7,0,0,0,0
TRAJE,OM,,2020,8,0,0,0,0
TRAJE,OM,,2020,9,0,0,0,0
TRAJE,OM,,2020,10,0,0,0,0
TRAJE,OM,,2020,11,0,0,0,0
TRAJE,OM,,2020,12,0,0,0,0
TRAJE,ROBERTS SM,,2020,1,0,0,0,0
TRAJE,ROBERTS SM,,2020,2,0,0,0,0
TRAJE,ROBERTS SM,,2020,3,0,0,0,0
TRAJE,ROBERTS SM,,2020,4,0,0,0,0
TRAJE,ROBERTS SM,,2020,5,0,0,0,0
TRAJE,ROBERTS SM,,2020,6,0,0,0,0
TRAJE,ROBERTS SM,,2020,7,0,0,0,0
TRAJE,ROBERTS SM,,2020,8,0,0,0,0
TRAJE,ROBERTS SM,,2020,9,0,0,0,0
TRAJE,ROBERTS SM,,2020,10,0,0,0,0
TRAJE,ROBERTS SM,,2020,11,0,0,0,0
TRAJE,ROBERTS SM,,2020,12,0,0,0,0
TRAJE TRIO,ROBERTS SA,,2020,1,0,0,0,0
TRAJE TRIO,ROBERTS SA,,2020,2,0,0,0,0
TRAJE TRIO,ROBERTS SA,,2020,3,0,0,0,0
TRAJE TRIO,ROBERTS SA,,2020,4,0,0,0,0
TRAJE TRIO,ROBERTS SA,,2020,5,0,0,0,0
TRAJE TRIO,ROBERTS SA,,2020,6,0,0,0,0
TRAJE TRIO,ROBERTS SA,,2020,7,0,0,0,0
TRAJE TRIO,ROBERTS SA,,2020,8,0,0,0,0
TRAJE TRIO,ROBERTS SA,,2020,9,0,0,0,0
TRAJE TRIO,ROBERTS SA,,2020,10,0,0,0,0
TRAJE TRIO,ROBERTS SA,,2020,11,0,0,0,0
TRAJE TRIO,ROBERTS SA,,2020,12,0,0,0,0
TRAJE,G.VALENTIN,,2020,1,0,0,0,0
TRAJE,G.VALENTIN,,2020,2,0,0,0,0
TRAJE,G.VALENTIN,,2020,3,0,0,0,0
TRAJE,G.VALENTIN,,2020,4,0,0,0,0
TRAJE,G.VALENTIN,,2020,5,0,0,0,0
TRAJE,G.VALENTIN,,2020,6,0,0,0,0
TRAJE,G.VALENTIN,,2020,7,0,0,0,0
TRAJE,G.VALENTIN,,2020,8,0,0,0,0
TRAJE,G.VALENTIN,,2020,9,0,0,0,0
TRAJE,G.VALENTIN,,2020,10,0,0,0,0
TRAJE,G.VALENTIN,,2020,11,0,0,0,0
TRAJE,G.VALENTIN,,2020,12,0,0,0,0
TRAJE,LOROPIANA,,2020,1,0,0,0,0
TRAJE,LOROPIANA,,2020,2,0,0,0,0
TRAJE,LOROPIANA,,2020,3,0,0,0,0
TRAJE,LOROPIANA,,2020,4,0,0,0,0
TRAJE,LOROPIANA,,2020,5,0,0,0,0
TRAJE,LOROPIANA,,2020,6,0,0,0,0
TRAJE,LOROPIANA,,2020,7,0,0,0,0
TRAJE,LOROPIANA,,2020,8,0,0,0,0
TRAJE,LOROPIANA,,2020,9,0,0,0,0
TRAJE,LOROPIANA,,2020,10,0,0,0,0
TRAJE,LOROPIANA,,2020,11,0,0,0,0
TRAJE,LOROPIANA,,2020,12,0,0,0,0
TRAJE,PAOLOVERZI,,2020,1,0,0,0,0
TRAJE,PAOLOVERZI,,2020,2,0,0,0,0
TRAJE,PAOLOVERZI,,2020,3,0,0,0,0
TRAJE,PAOLOVERZI,,2020,4,0,0,0,0
TRAJE,PAOLOVERZI,,2020,5,0,0,0,0
TRAJE,PAOLOVERZI,,2020,6,0,0,0,0
TRAJE,PAOLOVERZI,,2020,7,0,0,0,0
TRAJE,PAOLOVERZI,,2020,8,0,0,0,0
TRAJE,PAOLOVERZI,,2020,9,0,0,0,0
TRAJE,PAOLOVERZI,,2020,10,0,0,0,0
TRAJE,PAOLOVERZI,,2020,11,0,0,0,0
TRAJE,PAOLOVERZI,,2020,12,0,0,0,0
TRAJE TRIO,CALDLANOTE,,2020,1,0,0,0,0
TRAJE TRIO,CALDLANOTE,,2020,2,0,0,0,0
TRAJE TRIO,CALDLANOTE,,2020,3,0,0,0,0
TRAJE TRIO,CALDLANOTE,,2020,4,0,0,0,0
TRAJE TRIO,CALDLANOTE,,2020,5,0,0,0,0
TRAJE TRIO,CALDLANOTE,,2020,6,0,0,0,0
TRAJE TRIO,CALDLANOTE,,2020,7,0,0,0,0
TRAJE TRIO,CALDLANOTE,,2020,8,0,0,0,0
TRAJE TRIO,CALDLANOTE,,2020,9,0,0,0,0
TRAJE TRIO,CALDLANOTE,,2020,10,0,0,0,0
TRAJE TRIO,CALDLANOTE,,2020,11,0,0,0,0
TRAJE TRIO,CALDLANOTE,,2020,12,0,0,0,0
