29/09/2020 10:40:43;Intervalo : 0-50;Consulta : 27/09/20; Error : 404 Client Error: Not Found for url: https://haberuniversidad.com/sindi/iframe.ph
29/09/2020 10:40:43;Intervalo : 0-50;Consulta : 27/09/20; Error : 404 Client Error: Not Found for url: https://haberuniversidad.com/sindi/iframe.ph
29/09/2020 10:40:43;Intervalo : 0-50;Consulta : 27/09/20; Error : 404 Client Error: Not Found for url: https://haberuniversidad.com/sindi/iframe.ph
29/09/2020 10:40:43;Intervalo : 50-100;Consulta : 27/09/20; Error : 404 Client Error: Not Found for url: https://haberuniversidad.com/sindi/iframe.ph
29/09/2020 10:40:43;Intervalo : 0-50;Consulta : 27/09/20; Error : 404 Client Error: Not Found for url: https://haberuniversidad.com/sindi/iframe.ph
29/09/2020 10:40:43;Intervalo : 50-100;Consulta : 27/09/20; Error : 404 Client Error: Not Found for url: https://haberuniversidad.com/sindi/iframe.ph
29/09/2020 12:08:22;Intervalo : 0-50;Consulta : 27/09/20; Error : 404 Client Error: Not Found for url: https://haberuniversidad.com/sindi/iframe.ph
29/09/2020 12:08:22;Intervalo : 50-100;Consulta : 27/09/20; Error : 404 Client Error: Not Found for url: https://haberuniversidad.com/sindi/iframe.ph
29/09/2020 12:08:22;Intervalo : 0-50;Consulta : 27/09/20; Error : 404 Client Error: Not Found for url: https://haberuniversidad.com/sindi/iframe.ph
29/09/2020 12:08:22;Intervalo : 0-50;Consulta : 27/09/20; Error : 404 Client Error: Not Found for url: https://haberuniversidad.com/sindi/iframe.ph
29/09/2020 12:08:22;Intervalo : 50-100;Consulta : 27/09/20; Error : 404 Client Error: Not Found for url: https://haberuniversidad.com/sindi/iframe.ph
29/09/2020 12:08:22;Intervalo : 0-50;Consulta : 27/09/20; Error : 404 Client Error: Not Found for url: https://haberuniversidad.com/sindi/iframe.ph
29/09/2020 12:08:22;Intervalo : 0-50;Consulta : 27/09/20; Error : 404 Client Error: Not Found for url: https://haberuniversidad.com/sindi/iframe.ph
29/09/2020 12:08:22;Intervalo : 50-100;Consulta : 27/09/20; Error : 404 Client Error: Not Found for url: https://haberuniversidad.com/sindi/iframe.ph
29/09/2020 12:08:22;Intervalo : 100-150;Consulta : 27/09/20; Error : 404 Client Error: Not Found for url: https://haberuniversidad.com/sindi/iframe.ph
29/09/2020 12:08:22;Intervalo : 0-50;Consulta : 27/09/20; Error : 404 Client Error: Not Found for url: https://haberuniversidad.com/sindi/iframe.ph
29/09/2020 12:08:22;Intervalo : 50-100;Consulta : 27/09/20; Error : 404 Client Error: Not Found for url: https://haberuniversidad.com/sindi/iframe.ph
29/09/2020 12:08:22;Intervalo : 100-150;Consulta : 27/09/20; Error : 404 Client Error: Not Found for url: https://haberuniversidad.com/sindi/iframe.ph
29/09/2020 12:08:22;Intervalo : 0-50;Consulta : 27/09/20; Error : 404 Client Error: Not Found for url: https://haberuniversidad.com/sindi/iframe.ph
29/09/2020 12:08:22;Intervalo : 0-50;Consulta : 27/09/20; Error : 404 Client Error: Not Found for url: https://haberuniversidad.com/sindi/iframe.ph
29/09/2020 12:08:22;Intervalo : 0-50;Consulta : 27/09/20; Error : 404 Client Error: Not Found for url: https://haberuniversidad.com/sindi/iframe.ph
29/09/2020 12:08:22;Intervalo : 0-50;Consulta : 27/09/20; Error : 404 Client Error: Not Found for url: https://haberuniversidad.com/sindi/iframe.ph
29/09/2020 12:08:22;Intervalo : 0-50;Consulta : 27/09/20; Error : 404 Client Error: Not Found for url: https://haberuniversidad.com/sindi/iframe.ph
29/09/2020 12:08:22;Intervalo : 0-50;Consulta : 27/09/20; Error : 404 Client Error: Not Found for url: https://haberuniversidad.com/sindi/iframe.ph
29/09/2020 12:08:22;Intervalo : 50-100;Consulta : 27/09/20; Error : 404 Client Error: Not Found for url: https://haberuniversidad.com/sindi/iframe.ph
29/09/2020 12:08:22;Intervalo : 0-50;Consulta : 27/09/20; Error : 404 Client Error: Not Found for url: https://haberuniversidad.com/sindi/iframe.ph
29/09/2020 12:08:22;Intervalo : 50-100;Consulta : 27/09/20; Error : 404 Client Error: Not Found for url: https://haberuniversidad.com/sindi/iframe.ph
29/09/2020 12:08:22;Intervalo : 0-50;Consulta : 27/09/20; Error : 404 Client Error: Not Found for url: https://haberuniversidad.com/sindi/iframe.ph
29/09/2020 12:08:22;Intervalo : 50-100;Consulta : 27/09/20; Error : 404 Client Error: Not Found for url: https://haberuniversidad.com/sindi/iframe.ph
29/09/2020 12:08:22;Intervalo : 100-150;Consulta : 27/09/20; Error : 404 Client Error: Not Found for url: https://haberuniversidad.com/sindi/iframe.ph
30/09/2020 09:55:10;Intervalo : 0-50;Consulta : 28/09/20; Error : 404 Client Error: Not Found for url: https://haberuniversidad.com/sindi/iframe.ph
